CodeEditingAction 1639248908000 Frame.java ADD int bonus FIELD
CodeEditingAction 1639248920454 Frame.java CHANGE Frame.java CLASS
EditAction 1639248921028 Frame.java 1870 8 9 0
TestFailureAction 1639248921228 bsk.java FAIL
CodeEditingAction 1639249031545 Frame.java CHANGE Frame.java CLASS
EditAction 1639249031971 Frame.java 1845 8 9 0
TestFailureAction 1639249032308 bsk.java FAIL
CodeEditingAction 1639249195810 Frame.java ADD Frame.java CLASS
CodeEditingAction 1639249204239 Frame.java CHANGE Frame.java CLASS
EditAction 1639249204250 Frame.java 1855 8 9 0
EditAction 1639249204567 Frame.java 1855 8 9 0
TestFailureAction 1639249205008 bsk.java FAIL
CodeEditingAction 1639249253245 Frame.java CHANGE Frame.java CLASS
EditAction 1639249253245 Frame.java 1855 8 9 0
EditAction 1639249253259 Frame.java 1855 8 9 0
EditAction 1639249253777 Frame.java 1855 8 9 0
TestFailureAction 1639249254025 bsk.java FAIL
TestEditingAction 1639249297816 FrameTest.java CHANGE FrameTest.java CLASS CHANGE FrameTest.java CLASS
EditAction 1639249297817 FrameTest.java 2334 7 44 7
EditAction 1639249298304 FrameTest.java 2334 7 44 7
TestFailureAction 1639249298581 bsk.java FAIL
CodeEditingAction 1639249339184 Frame.java CHANGE Frame.java CLASS
EditAction 1639249339195 Frame.java 1868 8 9 0
EditAction 1639249339611 Frame.java 1868 8 9 0
TestFailureAction 1639249339948 bsk.java FAIL
CodeEditingAction 1639249439137 Frame.java CHANGE Frame.java CLASS
EditAction 1639249439148 Frame.java 1860 8 9 0
EditAction 1639249439616 Frame.java 1860 8 9 0
TestFailureAction 1639249439902 bsk.java FAIL
CodeEditingAction 1639249571233 Game.java ADD Game.java CLASS
CodeEditingAction 1639249614439 Game.java ADD Game.java CLASS
CodeEditingAction 1639249724879 Game.java CHANGE Game.java CLASS
EditAction 1639249724879 Game.java 2160 8 8 0
EditAction 1639249725415 Game.java 2160 8 8 0
TestFailureAction 1639249725654 bsk.java FAIL
CodeEditingAction 1639249742564 Game.java CHANGE Game.java CLASS
EditAction 1639249742565 Game.java 2164 8 8 0
EditAction 1639249743049 Game.java 2164 8 8 0
TestFailureAction 1639249743328 bsk.java FAIL
CodeEditingAction 1639249761429 Game.java CHANGE Game.java CLASS
EditAction 1639249761430 Game.java 2166 8 8 0
EditAction 1639249761814 Game.java 2166 8 8 0
TestFailureAction 1639249762204 bsk.java FAIL
CodeEditingAction 1639249792085 Game.java CHANGE Game.java CLASS
EditAction 1639249792085 Game.java 2166 8 8 0
EditAction 1639249792525 Game.java 2166 8 8 0
TestFailureAction 1639249792849 bsk.java FAIL
TestEditingAction 1639249858886 FrameTest.java CHANGE FrameTest.java CLASS CHANGE FrameTest.java CLASS
EditAction 1639249858887 FrameTest.java 2333 7 44 7
EditAction 1639249859325 FrameTest.java 2333 7 44 7
TestFailureAction 1639249859650 bsk.java FAIL
CodeEditingAction 1639249901849 Frame.java CHANGE Frame.java CLASS
EditAction 1639249901860 Frame.java 1944 8 10 0
EditAction 1639249902229 Frame.java 1944 8 10 0
TestFailureAction 1639249902612 bsk.java FAIL
CodeEditingAction 1639249935204 Game.java CHANGE Game.java CLASS
EditAction 1639249935204 Game.java 2075 8 8 0
EditAction 1639249935533 Game.java 2075 8 8 0
TestFailureAction 1639249935969 bsk.java FAIL
TestEditingAction 1639250050987 FrameTest.java CHANGE FrameTest.java CLASS CHANGE FrameTest.java CLASS
EditAction 1639250050988 FrameTest.java 2285 7 43 7
EditAction 1639250051001 FrameTest.java 2285 7 43 7
EditAction 1639250051477 FrameTest.java 2285 7 43 7
TestFailureAction 1639250051758 bsk.java FAIL
TestEditingAction 1639250075973 FrameTest.java CHANGE FrameTest.java CLASS CHANGE FrameTest.java CLASS
EditAction 1639250075973 FrameTest.java 2333 7 44 7
EditAction 1639250075986 FrameTest.java 2333 7 44 7
EditAction 1639250076462 FrameTest.java 2333 7 44 7
TestFailureAction 1639250076739 bsk.java FAIL
TestEditingAction 1639250135157 FrameTest.java CHANGE FrameTest.java CLASS CHANGE FrameTest.java CLASS
EditAction 1639250135158 FrameTest.java 2355 7 45 7
EditAction 1639250135598 FrameTest.java 2355 7 45 7
TestFailureAction 1639250135919 bsk.java FAIL
TestEditingAction 1639250183663 FrameTest.java CHANGE FrameTest.java CLASS CHANGE FrameTest.java CLASS
EditAction 1639250183663 FrameTest.java 2324 7 44 7
EditAction 1639250183678 FrameTest.java 2324 7 44 7
EditAction 1639250184159 FrameTest.java 2324 7 44 7
TestFailureAction 1639250184431 bsk.java FAIL
TestEditingAction 1639250264623 FrameTest.java CHANGE FrameTest.java CLASS CHANGE FrameTest.java CLASS
EditAction 1639250264623 FrameTest.java 2355 7 45 7
EditAction 1639250264636 FrameTest.java 2355 7 45 7
EditAction 1639250265062 FrameTest.java 2355 7 45 7
TestPassAction 1639250265392 bsk.java OK
TestEditingAction 1639250321865 FrameTest.java CHANGE FrameTest.java CLASS CHANGE FrameTest.java CLASS
EditAction 1639250321865 FrameTest.java 2355 7 45 7
CodeEditingAction 1639250321872 Frame.java CHANGE Frame.java CLASS
EditAction 1639250321883 Frame.java 1939 8 10 0
EditAction 1639250322455 Frame.java 1939 8 10 0
EditAction 1639250322457 FrameTest.java 2355 7 45 7
TestFailureAction 1639250322641 bsk.java FAIL
TestEditingAction 1639250533598 FrameTest.java CHANGE FrameTest.java CLASS CHANGE FrameTest.java CLASS
EditAction 1639250533985 FrameTest.java 2609 7 52 7
TestFailureAction 1639250534365 bsk.java FAIL
TestEditingAction 1639250544286 FrameTest.java CHANGE FrameTest.java CLASS CHANGE FrameTest.java CLASS
EditAction 1639250544287 FrameTest.java 2609 7 52 7
EditAction 1639250544724 FrameTest.java 2609 7 52 7
TestFailureAction 1639250545055 bsk.java FAIL
TestEditingAction 1639250565262 FrameTest.java RENAME testBonus()=>void testSpare() METHOD RENAME testBonus()=>void testSpare() METHOD
TestEditingAction 1639250569629 FrameTest.java CHANGE FrameTest.java CLASS CHANGE FrameTest.java CLASS
EditAction 1639250569629 FrameTest.java 2609 7 52 7
EditAction 1639250570081 FrameTest.java 2609 7 52 7
TestFailureAction 1639250570405 bsk.java FAIL
CodeEditingAction 1639250603901 Game.java ADD int bonus FIELD
CodeEditingAction 1639250659907 Game.java CHANGE Game.java CLASS
EditAction 1639250660480 Game.java 2199 8 8 0
TestPassAction 1639250660675 bsk.java OK
